{
  "individualResults": [
    {
      "globalRankByTime": 3,
      "globalRankByAwd": 3,
      "rankByLocationAwd": 3,
      "globalRankByIndustry": 1,
      "rankByLocationIndustry": 1,
      "displayName": "Tom Godkin",
      "gender": 1,
      "companyName": "JPMorganChase",
      "eventLocation": "London",
      "industry": "Banking/Finance/Investments",
      "bestFinishTime": 1610,
      "awd": "AAWD",
      "eventId": 273,
      "globalRankByGender": 2,
      "rankByLocationGender": 2,
      "companyId": 33593,
      "externalId": "25d0c01f-4aa9-40b1-98b1-8c5b525353e3",
      "entrantId": 1004780,
      "bibNumber": "11590",
      "ageMin": 35,
      "ageMax": 39,
      "eventYear": 2026
    },
    {
      "globalRankByTime": 4,
      "globalRankByAwd": 4,
      "rankByLocationAwd": 4,
      "globalRankByIndustry": 1,
      "rankByLocationIndustry": 1,
      "displayName": "Preston Eppler",
      "gender": 1,
      "companyName": "Datasite",
      "eventLocation": "London",
      "industry": "Technology",
      "bestFinishTime": 1621,
      "awd": "AAWD",
      "eventId": 273,
      "globalRankByGender": 3,
      "rankByLocationGender": 3,
      "companyId": 33927,
      "externalId": "5d64d322-1488-4903-b0d4-7cc47ae6f188",
      "entrantId": 1021131,
      "bibNumber": "22378",
      "ageMin": 25,
      "ageMax": 29,
      "eventYear": 2026
    },
    {
      "globalRankByTime": 6,
      "globalRankByAwd": 6,
      "rankByLocationAwd": 5,
      "globalRankByIndustry": 1,
      "rankByLocationIndustry": 1,
      "displayName": "Lee Hazelwood",
      "gender": 1,
      "companyName": "Anglo American PLC",
      "eventLocation": "London",
      "industry": "Petroleum Refining/Crude Oil Products/Gas/Mining",
      "bestFinishTime": 1672,
      "awd": "AAWD",
      "eventId": 273,
      "globalRankByGender": 5,
      "rankByLocationGender": 4,
      "companyId": 34061,
      "externalId": "f44b9c29-0ba6-4d74-89f8-a559266bbac1",
      "entrantId": 919380,
      "bibNumber": "24743",
      "ageMin": 55,
      "ageMax": 59,
      "eventYear": 2026
    },
    {
      "globalRankByTime": 7,
      "globalRankByAwd": 7,
      "rankByLocationAwd": 6,
      "globalRankByIndustry": 1,
      "rankByLocationIndustry": 1,
      "displayName": "Ita McGennis",
      "gender": 0,
      "companyName": "Lloyd's of London",
      "eventLocation": "London",
      "industry": "Insurance",
      "bestFinishTime": 1716,
      "awd": "AAWD",
      "eventId": 273,
      "globalRankByGender": 2,
      "rankByLocationGender": 2,
      "companyId": 34240,
      "externalId": "e18d2e4a-3366-4b28-99a0-f142e45f9fc0",
      "entrantId": 870517,
      "bibNumber": "4899",
      "ageMin": 25,
      "ageMax": 29,
      "eventYear": 2026
    },
    {
      "globalRankByTime": 8,
      "globalRankByAwd": 8,
      "rankByLocationAwd": 7,
      "globalRankByIndustry": 3,
      "rankByLocationIndustry": 2,
      "displayName": "Ade Murana",
      "gender": 1,
      "companyName": "RABOBANK",
      "eventLocation": "London",
      "industry": "Banking/Finance/Investments",
      "bestFinishTime": 1776,
      "awd": "AAWD",
      "eventId": 273,
      "globalRankByGender": 6,
      "rankByLocationGender": 5,
      "companyId": 33928,
      "externalId": "07f7e66c-4fd0-4e41-b404-7e3c82bb0651",
      "entrantId": 923652,
      "bibNumber": "28708",
      "ageMin": 30,
      "ageMax": 34,
      "eventYear": 2026
    },
    {
      "globalRankByTime": 9,
      "globalRankByAwd": 9,
      "rankByLocationAwd": 8,
      "globalRankByIndustry": 4,
      "rankByLocationIndustry": 3,
      "displayName": "Nerea Sainz de la Maza Melon",
      "gender": 0,
      "companyName": "MILLENNIUM CAPITAL PARTNERS",
      "eventLocation": "London",
      "industry": "Banking/Finance/Investments",
      "bestFinishTime": 1834,
      "awd": "AAWD",
      "eventId": 273,
      "globalRankByGender": 3,
      "rankByLocationGender": 3,
      "companyId": 33982,
      "externalId": "60412779-5e7b-4fd1-8b1e-82f37eb9f3c0",
      "entrantId": 1000691,
      "bibNumber": "30056",
      "ageMin": 21,
      "ageMax": 24,
      "eventYear": 2026
    },
    {
      "globalRankByTime": 18,
      "globalRankByAwd": 18,
      "rankByLocationAwd": 9,
      "globalRankByIndustry": 8,
      "rankByLocationIndustry": 4,
      "displayName": "Scott Douglas",
      "gender": 1,
      "companyName": "Centrus",
      "eventLocation": "London",
      "industry": "Banking/Finance/Investments",
      "bestFinishTime": 1939,
      "awd": "AAWD",
      "eventId": 273,
      "globalRankByGender": 11,
      "rankByLocationGender": 6,
      "companyId": 34166,
      "externalId": "821a9b03-4097-4bff-ac8e-f7b9c785510b",
      "entrantId": 1021576,
      "bibNumber": "27119",
      "ageMin": 30,
      "ageMax": 34,
      "eventYear": 2026
    },
    {
      "globalRankByTime": 34,
      "globalRankByAwd": 34,
      "rankByLocationAwd": 10,
      "globalRankByIndustry": 12,
      "rankByLocationIndustry": 5,
      "displayName": "MIKE BURNETT",
      "gender": 1,
      "companyName": "Lloyds Banking Group",
      "eventLocation": "London",
      "industry": "Banking/Finance/Investments",
      "bestFinishTime": 2049,
      "awd": "AAWD",
      "eventId": 273,
      "globalRankByGender": 21,
      "rankByLocationGender": 7,
      "companyId": 34030,
      "externalId": "17522383-a5ac-442f-9085-dd7e27649e8f",
      "entrantId": 870060,
      "bibNumber": "14495",
      "ageMin": 30,
      "ageMax": 34,
      "eventYear": 2026
    },
    {
      "globalRankByTime": 43,
      "globalRankByAwd": 43,
      "rankByLocationAwd": 11,
      "globalRankByIndustry": 13,
      "rankByLocationIndustry": 6,
      "displayName": "Keiko",
      "gender": 0,
      "companyName": "Mitsubishi UFJ Trust Bank",
      "eventLocation": "London",
      "industry": "Banking/Finance/Investments",
      "bestFinishTime": 2164,
      "awd": "AAWD",
      "eventId": 273,
      "globalRankByGender": 15,
      "rankByLocationGender": 4,
      "companyId": 33900,
      "externalId": "b2496b18-a5a1-4af6-89aa-e9fda45cc689",
      "entrantId": 866632,
      "bibNumber": "33601",
      "ageMin": 40,
      "ageMax": 44,
      "eventYear": 2026
    },
    {
      "globalRankByTime": 49,
      "globalRankByAwd": 49,
      "rankByLocationAwd": 12,
      "globalRankByIndustry": 4,
      "rankByLocationIndustry": 2,
      "displayName": "Kelly Ackary",
      "gender": 0,
      "companyName": "Reply",
      "eventLocation": "London",
      "industry": "Technology",
      "bestFinishTime": 2181,
      "awd": "AAWD",
      "eventId": 273,
      "globalRankByGender": 17,
      "rankByLocationGender": 5,
      "companyId": 33781,
      "externalId": "cf219ff5-1570-42dd-ab83-56f395b25399",
      "entrantId": 1017733,
      "bibNumber": "34336",
      "ageMin": 45,
      "ageMax": 49,
      "eventYear": 2026
    },
    {
      "globalRankByTime": 74,
      "globalRankByAwd": 74,
      "rankByLocationAwd": 13,
      "globalRankByIndustry": 20,
      "rankByLocationIndustry": 7,
      "displayName": "Het Shah",
      "gender": 0,
      "companyName": "DBS BANK",
      "eventLocation": "London",
      "industry": "Banking/Finance/Investments",
      "bestFinishTime": 2411,
      "awd": "AAWD",
      "eventId": 273,
      "globalRankByGender": 22,
      "rankByLocationGender": 6,
      "companyId": 33783,
      "externalId": "694299dd-bc62-4a31-968e-1a1dc43b98f1",
      "entrantId": 976120,
      "bibNumber": "22393",
      "ageMin": 25,
      "ageMax": 29,
      "eventYear": 2026
    },
    {
      "globalRankByTime": 84,
      "globalRankByAwd": 84,
      "rankByLocationAwd": 14,
      "globalRankByIndustry": 22,
      "rankByLocationIndustry": 8,
      "displayName": "Tifé Adegun",
      "gender": 0,
      "companyName": "MOODY'S CORPORATION",
      "eventLocation": "London",
      "industry": "Banking/Finance/Investments",
      "bestFinishTime": 2516,
      "awd": "AAWD",
      "eventId": 273,
      "globalRankByGender": 27,
      "rankByLocationGender": 7,
      "companyId": 33792,
      "externalId": "58246e93-d6c6-4ef0-9006-d058982f9f62",
      "entrantId": 878724,
      "bibNumber": "14860",
      "ageMin": 25,
      "ageMax": 29,
      "eventYear": 2026
    },
    {
      "globalRankByTime": 90,
      "globalRankByAwd": 90,
      "rankByLocationAwd": 15,
      "globalRankByIndustry": 25,
      "rankByLocationIndustry": 9,
      "displayName": "Shane Dillon",
      "gender": 1,
      "companyName": "Tradition",
      "eventLocation": "London",
      "industry": "Banking/Finance/Investments",
      "bestFinishTime": 2582,
      "awd": "AAWD",
      "eventId": 273,
      "globalRankByGender": 62,
      "rankByLocationGender": 8,
      "companyId": 34173,
      "externalId": "fe977a05-2b5d-4714-9b9c-ae924c46580e",
      "entrantId": 868713,
      "bibNumber": "15712",
      "ageMin": 55,
      "ageMax": 59,
      "eventYear": 2026
    },
    {
      "globalRankByTime": 138,
      "globalRankByAwd": 138,
      "rankByLocationAwd": 16,
      "globalRankByIndustry": 33,
      "rankByLocationIndustry": 10,
      "displayName": "Christine",
      "gender": 0,
      "companyName": "MORGAN STANLEY",
      "eventLocation": "London",
      "industry": "Banking/Finance/Investments",
      "bestFinishTime": 3625,
      "awd": "AAWD",
      "eventId": 273,
      "globalRankByGender": 49,
      "rankByLocationGender": 8,
      "companyId": 34184,
      "externalId": "f348f9c7-a1ed-40ff-b95c-9e0d3f5e3d91",
      "entrantId": 881575,
      "bibNumber": "16561",
      "ageMin": 30,
      "ageMax": 34,
      "eventYear": 2026
    },
    {
      "globalRankByTime": 148,
      "globalRankByAwd": 148,
      "rankByLocationAwd": 17,
      "globalRankByIndustry": 36,
      "rankByLocationIndustry": 11,
      "displayName": "Nikolay Naydenov",
      "gender": 1,
      "companyName": "Oxane Partners ",
      "eventLocation": "London",
      "industry": "Banking/Finance/Investments",
      "bestFinishTime": 3743,
      "awd": "AAWD",
      "eventId": 273,
      "globalRankByGender": 91,
      "rankByLocationGender": 9,
      "companyId": 33797,
      "externalId": "c977c476-5ded-4abf-a47e-e2468d36f5c1",
      "entrantId": 924045,
      "bibNumber": "34097",
      "ageMin": 50,
      "ageMax": 54,
      "eventYear": 2026
    }
  ],
  "metadata": {
    "totalItems": 15,
    "totalRecords": 20615,
    "maxItemsPerPage": 0,
    "currentPage": 207,
    "totalPages": 207,
    "sortColumn": "",
    "descendingOrder": false,
    "title": "Individual Results",
    "description": "Overall Entrant results for a company",
    "isVirtual": false,
    "queriedAt": "2026-07-04T23:47:40.945768580Z",
    "companyFinishers": 0,
    "numEvents": 0,
    "numCompletedEvents": 0
  }
}
